Access Data from the European Tracking Network • etn
…
# Get acoustic detections for a tag and time period
get_acoustic_detections(
  tag_serial_number = "1171781",
  start_date = "2014-06-01",
  end_date = "2014-06-15"
)
#> ℹ Preparing
#> ✔ Preparing : will fetch 323  detections [1.8s]
#> 
#> ℹ Wrapping up
#> ✔ Wrapping up [129ms]
#> 
#> # A tibble: 323 × 20
#>    detection_id date_time           tag_serial_number acoustic_tag_id
#>           <int> <dttm>              <chr>             <chr>          
#>  1     20584649 2014-06-11 21:37:55 1171781           A69-1601-26535 
#>  2     20586150 2014-06-10 21:38:39 1171781           A69-1601-26535 
#>  3     20586258 2014-06-12 22:10:13 1171781           A69-1601-26535 
#>  4     20593508 2014-06-10 21:57:52 1171781           A69-1601-26535 
#>  5     20594981 2014-06-11 00:04:02 1171781           A69-1601-26535 
#>  6     20618890 2014-06-11 00:23:07 1171781           A69-1601-26535 
#>  7     20623541 2014-06-04 21:43:22 1171781           A69-1601-26535 
#>  8     20628279 2014-06-11 23:44:24 1171781           A69-1601-26535 
#>  9     20633201 2014-06-14 22:04:51 1171781           A69-1601-26535 
#> 10     20638052 2014-06-14 23:43:10 1171781           A69-1601-26535 
#> # ℹ 313 more rows
#> # ℹ 16 more variables: animal_project_code <chr>, animal_id <int>,
#> #   scientific_name <chr>, acoustic_project_code <chr>, receiver_id <chr>,
#> #   station_name <chr>, deploy_latitude <dbl>, deploy_longitude <dbl>,
#> #   sensor_value <dbl>, sensor_unit <chr>, sensor2_value <dbl>,
#> #   sensor2_unit <chr>, signal_to_noise_ratio <int>, source_file <chr>,
#> #   qc_flag <lgl>, deployment_id <int>
…
