…
# Get acoustic detections for a tag and time period
get_acoustic_detections(
  animal_project_code = "2014_demer",
  # TODO: change to tag_serial_number = "1171781",
  start_date = "2014-06-01",
  end_date = "2014-06-15"
)
#> ℹ Preparing
#> ✔ Preparing : will fetch 15.99 k detections [1.9s]
#> 
#> ℹ Wrapping up
#> ✔ Wrapping up [140ms]
#> 
#> # A tibble: 15,994 × 20
#>    detection_id date_time           tag_serial_number acoustic_tag_id
#>           <int> <dttm>              <chr>             <chr>          
#>  1     20594618 2014-06-04 13:18:45 1187450           A69-1601-16130 
#>  2     20603768 2014-06-04 13:32:32 1187450           A69-1601-16130 
#>  3     20631063 2014-06-04 13:43:26 1187450           A69-1601-16130 
#>  4     20631162 2014-06-04 13:14:13 1187450           A69-1601-16130 
#>  5     20660653 2014-06-03 06:36:00 1187450           A69-1601-16130 
#>  6     20704046 2014-06-04 13:07:48 1187450           A69-1601-16130 
#>  7     20705942 2014-06-04 13:57:01 1187450           A69-1601-16130 
#>  8     20712882 2014-06-04 13:09:10 1187450           A69-1601-16130 
#>  9     20750479 2014-06-04 13:38:35 1187450           A69-1601-16130 
#> 10     20778364 2014-06-04 13:48:37 1187450           A69-1601-16130 
#> # ℹ 15,984 more rows
#> # ℹ 16 more variables: animal_project_code <chr>, animal_id <int>,
#> #   scientific_name <chr>, acoustic_project_code <chr>, receiver_id <chr>,
#> #   station_name <chr>, deploy_latitude <dbl>, deploy_longitude <dbl>,
#> #   sensor_value <dbl>, sensor_unit <chr>, sensor2_value <dbl>,
#> #   sensor2_unit <chr>, signal_to_noise_ratio <int>, source_file <chr>,
#> #   qc_flag <lgl>, deployment_id <int>
```
…
