Get tag data — get_tags • etn
…
acoustic_tag_id
Character (vector). One or more acoustic tag
identifiers, i.e. identifiers found in get_acoustic_detections().

    Value

    A tibble with tags data, sorted by tag_serial_number.
Values for owner_organization and owner_pi will only be visible if you
are member of the group.

    Examples

# Get all tags
get_tags()
#> # A tibble: 63,030 × 54
#>    tag_serial_number tag_type tag_subtype sensor_type acoustic_tag_id
#>    <chr>             <chr>    <chr>       <chr>       <chr>          
#>  1 0A4E2699          acoustic animal      NA          OPI-2699       
#>  2 0A4F2700          acoustic animal      NA          OPI-2700       
#>  3 0A4G2701          acoustic animal      NA          OPI-2701       
#>  4 0A4H2702          acoustic animal      NA          OPI-2702       
#>  5 0A4J2704          acoustic animal      NA          OPI-2704       
#>  6 0A6E              acoustic animal      NA          R64K-2381      
#>  7 0A6F              acoustic animal      NA          R64K-2382      
#>  8 0A6G              acoustic animal      NA          R64K-2383      
#>  9 0A6H              acoustic animal      NA          R64K-2384      
#> 10 0A6I              acoustic animal      NA          R64K-2385      
#> # ℹ 63,020 more rows
#> # ℹ 49 more variables: acoustic_tag_id_alternative <chr>, manufacturer <chr>,
#> #   model <chr>, frequency <chr>, status <chr>, activation_date <dttm>,
#> #   battery_estimated_life <chr>, battery_estimated_end_date <dttm>,
#> #   length <dbl>, diameter <dbl>, weight <dbl>, floating <lgl>,
#> #   archive_memory <chr>, sensor_slope <dbl>, sensor_intercept <dbl>,
#> #   sensor_range <chr>, sensor_range_min <dbl>, sensor_range_max <dbl>, …

# Get archival tags, including acoustic-archival
get_tags(tag_type = c("archival", "acoustic-archival"))
#> # A tibble: 16,303 × 54
#>    tag_serial_number tag_type          tag_subtype sensor_type acoustic_tag_id
#>    <chr>             <chr>             <chr>       <chr>       <chr>          
#>  1 0AE6              acoustic-archival animal      P           OPS-4207       
#>  2 0AE7              acoustic-archival animal      P           OPS-4208       
#>  3 0B4S              acoustic-archival animal      A           Ops-4552       
#>  4 0B4S              acoustic-archival animal      P           Ops-4553       
#>  5 0B4T              acoustic-archival animal      A           Ops-4554       
#>  6 0B4T              acoustic-archival animal      P           Ops-4555       
#>  7 0B4U              acoustic-archival animal      A           Ops-4556       
#>  8 0B4U              acoustic-archival animal      P           Ops-4557       
#>  9 0B4V              acoustic-archival animal      A           Ops-4558       
#> 10 0B4V              acoustic-archival animal      P           Ops-4559       
#> # ℹ 16,293 more rows
#> # ℹ 49 more variables: acoustic_tag_id_alternative <chr>, manufacturer <chr>,
#> #   model <chr>, frequency <chr>, status <chr>, activation_date <dttm>,
#> #   battery_estimated_life <chr>, battery_estimated_end_date <dttm>,
#> #   length <dbl>, diameter <dbl>, weight <dbl>, floating <lgl>,
#> #   archive_memory <chr>, sensor_slope <dbl>, sensor_intercept <dbl>,
#> #   sensor_range <chr>, sensor_range_min <dbl>, sensor_range_max <dbl>, …

# Get tags of specific subtype
get_tags(tag_subtype = c("built-in", "range"))
#> # A tibble: 2,937 × 54
#>    tag_serial_number tag_type          tag_subtype sensor_type acoustic_tag_id
#>    <chr>             <chr>             <chr>       <chr>       <chr>          
#>  1 04HD              acoustic-archival range       P           S64K-9795      
#>  2 04HD              acoustic-archival range       A           S64K-9796      
#>  3 04HE              acoustic-archival range       P           S64K-9797      
#>  4 04HE              acoustic-archival range       A           S64K-9798      
#>  5 04HF              acoustic-archival range       P           S64K-9799      
#>  6 04HF              acoustic-archival range       A           S64K-9800      
#>  7 04HH              acoustic-archival range       P           S64K-9803      
#>  8 04HH              acoustic-archival range       A           S64K-9804      
#>  9 04HI              acoustic-archival range       P           S64K-9805      
#> 10 04HI              acoustic-archival range       A           S64K-9806      
#> # ℹ 2,927 more rows
#> # ℹ 49 more variables: acoustic_tag_id_alternative <chr>, manufacturer <chr>,
#> #   model <chr>, frequency <chr>, status <chr>, activation_date <dttm>,
#> #   battery_estimated_life <chr>, battery_estimated_end_date <dttm>,
#> #   length <dbl>, diameter <dbl>, weight <dbl>, floating <lgl>,
#> #   archive_memory <chr>, sensor_slope <dbl>, sensor_intercept <dbl>,
#> #   sensor_range <chr>, sensor_range_min <dbl>, sensor_range_max <dbl>, …
…
