…
## Examples

``` r
# Get all animal projects
get_cpod_projects()
#> # A tibble: 22 × 11
#>    project_id project_code   project_type telemetry_type project_name start_date
#>         <int> <chr>          <chr>        <chr>          <chr>        <date>    
#>  1       1088 ARMS_MBON_Bel… cpod         NA             Underwater … 2018-07-12
#>  2        880 Apelafico_aco… cpod         NA             Apelafico_a… 2021-01-01
#>  3        973 Apelafico_und… cpod         NA             Acoustic Ec… 2021-01-01
#>  4       1337 Blueconnect    cpod         NA             BlueConnect… 2026-01-01
#>  5       1093 CODEVCO        cpod         NA             CODEVCO - m… 2021-10-31
#>  6       1186 Lifewatch_add… cpod         NA             Lifewatch: … 2025-05-01
#>  7       1185 Lifewatch_per… cpod         NA             Lifewatch: … 2025-03-26
#>  8       1318 NOVANA         cpod         NA             The Nationa… 2004-01-01
#>  9       1073 PAM-Borssele   cpod         NA             PAM Harbour… 2019-07-01
#> 10       1066 PelFish        cpod         NA             Duurzame ec… 2023-01-01
#> # ℹ 12 more rows
#> # ℹ 5 more variables: end_date <date>, latitude <dbl>, longitude <dbl>,
#> #   moratorium <lgl>, imis_dataset_id <int>
…
