Explore acoustic telemetry data • etn
…
Which stations have been involved?

stations_silurus <-
  detections_silurus %>%
  select(station_name) %>%
  distinct() %>%
  arrange()
stations_silurus

## # A tibble: 23 × 1
##    station_name
##    <chr>       
##  1 de-8        
##  2 de-9        
##  3 de-7        
##  4 de-10       
##  5 de-12       
##  6 de-14       
##  7 de-14a      
##  8 de-5        
##  9 de-11       
## 10 de-13       
## # … with 13 more rows

Notice how a detection station can be linked to multiple deployments:

detections_silurus %>%
  distinct(station_name, deployment_id) %>%
  group_by(station_name) %>%
  add_tally() %>%
  arrange(desc(n))

## # A tibble: 33 × 3
## # Groups:   station_name [23]
##    station_name deployment_id     n
##    <chr>                <int> <int>
##  1 de-12                 2938     3
##  2 de-12                 1656     3
##  3 de-12                 1470     3
##  4 de-8                  1427     2
##  5 de-9                  1437     2
##  6 de-7                  1378     2
##  7 de-14                 1433     2
##  8 de-14a                1431     2
##  9 de-3                  2869     2
## 10 de-3                  1381     2
## # … with 23 more rows

Sometimes it’s interesting to know the number of detections per station:

n_detect_station <-
  detections_silurus %>%
  group_by(station_name) %>%
  count()
n_detect_station

## # A tibble: 23 × 2
## # Groups:   station_name [23]
##    station_name     n
##    <chr>        <int>
##  1 de-1           368
##  2 de-10         1681
##  3 de-11          163
##  4 de-12         4203
##  5 de-13          166
##  6 de-14        13353
##  7 de-14a        6604
##  8 de-16          591
##  9 de-18          148
## 10 de-19          650
## # … with 13 more rows

It’s also interesting to know the number of unique individuals per station:

n_silurus_station <-
  detections_silurus %>%
  distinct(station_name, animal_id) %>%
  group_by(station_name) %>%
  count()
n_silurus_station

## # A tibble: 23 × 2
## # Groups:   station_name [23]
##    station_name     n
##    <chr>        <int>
##  1 de-1             3
##  2 de-10            6
##  3 de-11            4
##  4 de-12            5
##  5 de-13            4
##  6 de-14            6
##  7 de-14a           6
##  8 de-16            4
##  9 de-18            3
## 10 de-19            5
## # … with 13 more rows
…
##  [1] "2004_Gudena"              "2011_Loire"              
##  [3] "2011_Warnow"              "2013_Foyle"              
##  [5] "2013_Maas"                "2014_Frome"              
##  [7] "2014_Nene"                "2015_PhD_Gutmann_Roberts"
##  [9] "2016_Diaccia_Botrona"     "2017_Fremur"

Acoustic deployments

You can retrieve deployment information related to the networks in networks_names by using get_acoustic_deployments() function:

deployments <-get_acoustic_deployments(acoustic_project_code = networks_names)
deployments

## # A tibble: 371 × 38
##    deployment_id receiver_id acoustic_project_code station_name station_descrip…
##            <int> <chr>       <chr>                 <chr>        <chr>           
##  1          1424 VR2W-122350 demer                 de-1         fietsersbrug aa…
##  2          1658 VR2W-122345 demer                 de-2         Rommelaar       
##  3          1478 VR2W-122325 demer                 de-2         rommelaar       
##  4          1661 VR2W-122344 demer                 de-3         Messelbroek     
##  5          1381 VR2W-122339 demer                 de-3         Messelbroek     
##  6          2869 VR2W-122339 demer                 de-3         Messelbroek     
##  7          1662 VR2W-122323 demer                 de-4         Testelt         
##  8          1425 VR2W-122337 demer                 de-5         SO_ZICHEM_DEMER 
##  9          1663 VR2W-122341 demer                 de-6         SA_RIF_LODEMER  
## 10          1378 VR2W-122320 demer                 de-7         de-7            
## # … with 361 more rows, and 33 more variables: station_manager <chr>,
## #   deploy_date_time <dttm>, deploy_latitude <dbl>, deploy_longitude <dbl>,
## #   intended_latitude <dbl>, intended_longitude <dbl>, mooring_type <chr>,
## #   bottom_depth <chr>, riser_length <chr>, deploy_depth <chr>,
## #   battery_installation_date <dttm>, battery_estimated_end_date <dttm>,
## #   activation_date_time <dttm>, recover_date_time <dttm>,
## #   recover_latitude <dbl>, recover_longitude <dbl>, …

These are the deployments of the acoustic receivers involved in detections_silurus:

deploys_silurus <-
  detections_silurus %>%
  distinct(receiver_id, deployment_id, station_name)
deploys_silurus

## # A tibble: 33 × 3
##    receiver_id station_name deployment_id
##    <chr>       <chr>                <int>
##  1 VR2W-122330 de-8                  1427
##  2 VR2W-124070 de-9                  1437
##  3 VR2W-122320 de-7                  1378
##  4 VR2W-124078 de-10                 1428
##  5 VR2W-122367 de-12                 2938
##  6 VR2W-122348 de-14                 1433
##  7 VR2W-124076 de-14a                1431
##  8 VR2W-122337 de-5                  1425
##  9 VR2W-124061 de-11                 1429
## 10 VR2W-122364 de-13                 1432
## # … with 23 more rows
…
# filter on deployment_id
deployments_silurus <-
  deployments_silurus %>%
  filter(deployment_id %in% detections_silurus$deployment_id)

Deployment duration:

deployments_silurus_duration <-
  deployments_silurus %>%
  mutate(duration = as.duration(recover_date_time - deploy_date_time)) %>%
  select(deployment_id, station_name, duration) %>%
  arrange(deployment_id)
deployments_silurus_duration

## # A tibble: 33 × 3
##    deployment_id station_name duration                
##            <int> <chr>        <Duration>              
##  1          1378 de-7         19706400s (~32.58 weeks)
##  2          1379 s-2a         19440000s (~32.14 weeks)
##  3          1381 de-3         3888000s (~6.43 weeks)  
##  4          1384 de-21        5788800s (~9.57 weeks)  
##  5          1424 de-1         23760000s (~39.29 weeks)
##  6          1425 de-5         24451200s (~40.43 weeks)
##  7          1427 de-8         19706400s (~32.58 weeks)
##  8          1428 de-10        26611200s (~44 weeks)   
##  9          1429 de-11        26611200s (~44 weeks)   
## 10          1431 de-14a       16070400s (~26.57 weeks)
## # … with 23 more rows

Number of days a deployment detected the passage of one or more individuals:

n_active_days_deployments_silurus <-
  detections_silurus %>%
  mutate(date = date(date_time)) %>%
  distinct(deployment_id, station_name, date) %>%
  group_by(deployment_id, station_name) %>%
  summarize(n_days = n(), .groups = "drop") %>%
  ungroup()
n_active_days_deployments_silurus

## # A tibble: 33 × 3
##    deployment_id station_name n_days
##            <int> <chr>         <int>
##  1          1378 de-7            125
##  2          1379 s-2a              7
##  3          1381 de-3              5
##  4          1384 de-21            25
##  5          1424 de-1              7
##  6          1425 de-5             48
##  7          1427 de-8            142
##  8          1428 de-10            35
##  9          1429 de-11            15
## 10          1431 de-14a           59
## # … with 23 more rows

Relative detection duration, i.e. number of days with at least one detection divided by deployment duration:

rel_det_duration_silurus <-
  n_active_days_deployments_silurus %>%
  left_join(
    deployments_silurus_duration,
    by = c("deployment_id", "station_name")
  ) %>%
  mutate(relative_detection_duration = n_days*(24*60*60) / as.numeric(duration)) %>%
  select(deployment_id, station_name, relative_detection_duration)
rel_det_duration_silurus

## # A tibble: 33 × 3
##    deployment_id station_name relative_detection_duration
##            <int> <chr>                              <dbl>
##  1          1378 de-7                              0.548 
##  2          1379 s-2a                              0.0311
##  3          1381 de-3                              0.111 
##  4          1384 de-21                             0.373 
##  5          1424 de-1                              0.0255
##  6          1425 de-5                              0.170 
##  7          1427 de-8                              0.623 
##  8          1428 de-10                             0.114 
##  9          1429 de-11                             0.0487
## 10          1431 de-14a                            0.317 
## # … with 23 more rows
…
We can for example create a map of the involved stations showing the station name and the acoustic project code it belongs to as pop-ups. First, we retrieve the coordinates of the stations:

geo_info_stations <-
  detections_silurus %>%
  distinct(
    station_name,
    deploy_latitude,
    deploy_longitude,
    acoustic_project_code
  ) %>%
  arrange(station_name)
geo_info_stations

## # A tibble: 23 × 4
##    acoustic_project_code station_name deploy_latitude deploy_longitude
##    <chr>                 <chr>                  <dbl>            <dbl>
##  1 demer                 de-1                    51.0             4.84
##  2 demer                 de-10                   51.0             5.05
##  3 demer                 de-11                   51.0             5.05
##  4 demer                 de-12                   51.0             5.06
##  5 demer                 de-13                   51.0             5.06
##  6 demer                 de-14                   51.0             5.06
##  7 demer                 de-14a                  51.0             5.06
##  8 demer                 de-16                   51.0             5.06
##  9 demer                 de-18                   51.0             5.07
## 10 demer                 de-19                   51.0             5.08
## # … with 13 more rows
…
We can also make a map of the relative detection duration of the deployments. First, we have to retrieve the deployment geographical coordinates:

geo_info_deploys <-
  detections_silurus %>%
  distinct(
    deployment_id,
    deploy_latitude,
    deploy_longitude,
    station_name,
    acoustic_project_code
  ) %>%
  arrange(station_name)
geo_info_deploys

## # A tibble: 33 × 5
##    acoustic_project… station_name deploy_latitude deploy_longitude deployment_id
##    <chr>             <chr>                  <dbl>            <dbl>         <int>
##  1 demer             de-1                    51.0             4.84          1424
##  2 demer             de-10                   51.0             5.05          1428
##  3 demer             de-11                   51.0             5.05          1429
##  4 demer             de-12                   51.0             5.06          2938
##  5 demer             de-12                   51.0             5.06          1656
##  6 demer             de-12                   51.0             5.06          1470
##  7 demer             de-13                   51.0             5.06          1432
##  8 demer             de-14                   51.0             5.06          1433
##  9 demer             de-14                   51.0             5.06          1592
## 10 demer             de-14a                  51.0             5.06          1431
## # … with 23 more rows
…
