Explore ETN data • etn
…
Deployments

Which deployments have been involved?

deployments_silurus <-
  detections_silurus %>%
  select(starts_with("deploy"), station_name) %>%
  distinct()
deployments_silurus
#> # A tibble: 64 x 4
#>    deploy_latitude deploy_longitude deployment_fk station_name
#>              <dbl>            <dbl>         <int> <chr>       
#>  1            51.0             5.04          1427 de-8        
#>  2            51.0             5.05          1437 de-9        
#>  3            51.0             5.03          1378 de-7        
#>  4            51.0             5.05          1428 de-10       
#>  5            51.0             5.06          2938 de-12       
#>  6            51.0             5.06          1433 de-14       
#>  7            51.0             5.06          1431 de-14a      
#>  8            51.0             4.99          1425 de-5        
#>  9            51.0             5.05          1429 de-11       
#> 10            51.0             5.06          1432 de-13       
#> # … with 54 more rows

Create a map of the involved deployments:

leaflet(deployments_silurus) %>%
  addTiles() %>%
  addMarkers(lng = ~deploy_longitude,
             lat = ~deploy_latitude,
             popup = ~htmlEscape(paste0(station_name, " (", deployment_fk, ")")))

Sometimes it’s interesting to know the number of detections per deployment:

detections_silurus %>%
  group_by(deployment_fk, station_name) %>%
  count()
#> # A tibble: 64 x 3
#> # Groups:   deployment_fk, station_name [64]
#>    deployment_fk station_name     n
#>            <int> <chr>        <int>
#>  1          1378 de-7         13605
#>  2          1379 s-2a           116
#>  3          1381 de-3            27
#>  4          1384 de-21          227
#>  5          1424 de-1           368
#>  6          1425 de-5          1685
#>  7          1427 de-8         15642
#>  8          1428 de-10         1681
#>  9          1429 de-11          163
#> 10          1431 de-14a        6599
#> # … with 54 more rows
…
and based on this information we can retrieve the metadata about the deployments. Be careful to set open_only equal to FALSE to get all deployments. To get the specific deployments, a filter on deployment’s primary key is needed:

deployments_silurus <-
  # get all deployments from the involved networks
  get_deployments(network_project_code = networks_silurus$network_project_code,
                  open_only = FALSE) %>%
  # filter the deployments based on their unique identifier
  filter(pk %in% detections_silurus$deployment_fk)

deployments_silurus
#> # A tibble: 64 x 39
#>       pk receiver_id application_type network_project… station_name
#>    <int> <chr>       <chr>            <chr>            <chr>       
#>  1  1424 VR2W-122350 acoustic_teleme… demer            de-1        
#>  2  1478 VR2W-122325 acoustic_teleme… demer            de-2        
#>  3  1381 VR2W-122339 acoustic_teleme… demer            de-3        
#>  4  2869 VR2W-122339 acoustic_teleme… demer            de-3        
#>  5  1662 VR2W-122323 acoustic_teleme… demer            de-4        
#>  6  1425 VR2W-122337 acoustic_teleme… demer            de-5        
#>  7  1663 VR2W-122341 acoustic_teleme… demer            de-6        
#>  8  1378 VR2W-122320 acoustic_teleme… demer            de-7        
#>  9  1593 VR2W-122320 acoustic_teleme… demer            de-7        
#> 10  1734 VR2W-122320 acoustic_teleme… demer            de-7        
#> # … with 54 more rows, and 34 more variables: station_description <chr>,
#> #   station_manager <chr>, deploy_date_time <dttm>, deploy_latitude <dbl>,
#> #   deploy_longitude <dbl>, intended_latitude <dbl>, intended_longitude <dbl>,
#> #   mooring_type <chr>, bottom_depth <chr>, riser_length <chr>,
#> #   deploy_depth <chr>, battery_installation_date <dttm>,
#> #   battery_estimated_end_date <dttm>, activation_date_time <dttm>,
#> #   recover_date_time <dttm>, recover_latitude <dbl>, recover_longitude <dbl>,
#> #   download_date_time <dttm>, download_file_name <chr>,
#> #   valid_data_until_date_time <dttm>, sync_date_time <dttm>, time_drift <chr>,
#> #   ar_battery_installation_date <dttm>, ar_confirm <chr>,
#> #   transmit_profile <chr>, transmit_power_output <chr>,
#> #   log_temperature_stats_period <int>, log_temperature_sample_period <int>,
#> #   log_tilt_sample_period <int>, log_noise_stats_period <int>,
#> #   log_noise_sample_period <int>, log_depth_stats_period <int>,
#> #   log_depth_sample_period <int>, comments <chr>

Deployment duration:

deployments_silurus_duration <- 
  deployments_silurus %>%
  mutate(duration = recover_date_time - deploy_date_time) %>%
  select(pk, station_name, duration)
deployments_silurus_duration
#> # A tibble: 64 x 3
#>       pk station_name duration      
#>    <int> <chr>        <drtn>        
#>  1  1424 de-1         275.00000 days
#>  2  1478 de-2         189.00000 days
#>  3  1381 de-3          45.00000 days
#>  4  2869 de-3          61.00000 days
#>  5  1662 de-4          49.00000 days
#>  6  1425 de-5         283.00000 days
#>  7  1663 de-6          57.00000 days
#>  8  1378 de-7         228.08333 days
#>  9  1593 de-7          18.91667 days
#> 10  1734 de-7          16.00000 days
#> # … with 54 more rows

Number of days a deployment detected the passage of one or more fishes:

n_active_days_deployments_silurus <- 
  detections_silurus %>%
  mutate(date = date(date_time)) %>%
  distinct(deployment_fk, station_name, date) %>%
  group_by(deployment_fk, station_name) %>%
  summarise(n_days = n())
#> `summarise()` regrouping output by 'deployment_fk' (override with `.groups` argument)
n_active_days_deployments_silurus
#> # A tibble: 64 x 3
#> # Groups:   deployment_fk [64]
#>    deployment_fk station_name n_days
#>            <int> <chr>         <int>
#>  1          1378 de-7            125
#>  2          1379 s-2a              7
#>  3          1381 de-3              5
#>  4          1384 de-21            25
#>  5          1424 de-1              7
#>  6          1425 de-5             48
#>  7          1427 de-8            142
#>  8          1428 de-10            35
#>  9          1429 de-11            15
#> 10          1431 de-14a           59
#> # … with 54 more rows

Relative detection duration, i.e. number of days with at least one detection divided by deployment duration:

n_active_days_deployments_silurus %>%
  left_join(deployments_silurus_duration,
            by = c("deployment_fk" = "pk", "station_name")) %>%
  mutate(relative_detection_duration = n_days / as.numeric(duration)) %>%
  select(deployment_fk, station_name, relative_detection_duration)
#> # A tibble: 64 x 3
#> # Groups:   deployment_fk [64]
#>    deployment_fk station_name relative_detection_duration
#>            <int> <chr>                              <dbl>
#>  1          1378 de-7                              0.548 
#>  2          1379 s-2a                              0.0311
#>  3          1381 de-3                              0.111 
#>  4          1384 de-21                             0.373 
#>  5          1424 de-1                              0.0255
#>  6          1425 de-5                              0.170 
#>  7          1427 de-8                              0.623 
#>  8          1428 de-10                             0.114 
#>  9          1429 de-11                             0.0487
#> 10          1431 de-14a                            0.317 
#> # … with 54 more rows
…
