Get acoustic detections data — get_acoustic_detections • etn
…
    A tibble with acoustic detections data, sorted by acoustic_tag_id
and date_time. See also
field definitions.

    Examples

# Get limited sample of acoustic detections
get_acoustic_detections(limit = TRUE)
#> ℹ Preparing 
#> ✔ Preparing : will fetch 100  detections [15ms]
#> 
#> ℹ Wrapping up
#> ✔ Wrapping up [333ms]
#> 
#> # A tibble: 100 × 20
#>    detection_id date_time           tag_serial_number acoustic_tag_id
#>           <int> <dttm>              <chr>             <chr>          
#>  1     18895442 2010-09-14 09:38:36 1097345           A69-1303-65302 
#>  2     18895443 2010-09-14 09:58:44 1097345           A69-1303-65302 
#>  3     18895444 2010-09-14 10:18:52 1097345           A69-1303-65302 
#>  4     18895445 2010-09-14 10:28:56 1097345           A69-1303-65302 
#>  5     18895447 2010-09-14 10:59:07 1097345           A69-1303-65302 
#>  6     18895448 2010-09-14 11:09:11 1097345           A69-1303-65302 
#>  7     18895449 2010-09-14 11:19:15 1097345           A69-1303-65302 
#>  8     18895450 2010-09-14 12:09:35 1097345           A69-1303-65302 
#>  9     18895451 2010-09-14 12:19:39 1097345           A69-1303-65302 
#> 10     18895452 2010-09-14 13:20:02 1097345           A69-1303-65302 
#> # ℹ 90 more rows
#> # ℹ 16 more variables: animal_project_code <chr>, animal_id <int>,
#> #   scientific_name <chr>, acoustic_project_code <chr>, receiver_id <chr>,
#> #   station_name <chr>, deploy_latitude <dbl>, deploy_longitude <dbl>,
#> #   sensor_value <dbl>, sensor_unit <chr>, sensor2_value <dbl>,
#> #   sensor2_unit <chr>, signal_to_noise_ratio <int>, source_file <chr>,
#> #   qc_flag <lgl>, deployment_id <int>

# Get all acoustic detections from a specific animal project
get_acoustic_detections(animal_project_code = "2014_demer")
#> ℹ Preparing 
#> ✔ Preparing : will fetch 235.81 k detections [1.5s]
#> 
#> Getting detections. ■■■■■■■■■■■                       33% [2.9s] | ETA:  6s
#> Getting detections. ■■■■■■■■■■■■■■■■■■■■■             67% [5.5s] | ETA:  3s
#> ℹ Wrapping up
#> ✔ Wrapping up [461ms]
#> 
#> # A tibble: 235,809 × 20
#>    detection_id date_time           tag_serial_number acoustic_tag_id
#>           <int> <dttm>              <chr>             <chr>          
#>  1     22437907 2014-04-18 16:10:00 1187449           A69-1601-16129 
#>  2     22452992 2014-04-18 15:57:26 1187449           A69-1601-16129 
#>  3     22502640 2014-04-18 15:59:00 1187449           A69-1601-16129 
#>  4     22524167 2014-04-18 15:45:09 1187449           A69-1601-16129 
#>  5     22531464 2014-04-18 15:53:00 1187449           A69-1601-16129 
#>  6     22657782 2014-04-18 15:59:55 1187449           A69-1601-16129 
#>  7     21305869 2014-04-18 15:53:42 1187449           A69-1601-16129 
#>  8     21338571 2014-04-18 15:58:34 1187449           A69-1601-16129 
#>  9     21425044 2014-04-18 15:50:00 1187449           A69-1601-16129 
#> 10     20582652 2014-04-18 15:52:33 1187449           A69-1601-16129 
#> # ℹ 235,799 more rows
#> # ℹ 16 more variables: animal_project_code <chr>, animal_id <int>,
#> #   scientific_name <chr>, acoustic_project_code <chr>, receiver_id <chr>,
#> #   station_name <chr>, deploy_latitude <dbl>, deploy_longitude <dbl>,
#> #   sensor_value <dbl>, sensor_unit <chr>, sensor2_value <dbl>,
#> #   sensor2_unit <chr>, signal_to_noise_ratio <int>, source_file <chr>,
#> #   qc_flag <lgl>, deployment_id <int>

# Get 2015 acoustic detections from that animal project
get_acoustic_detections(
  animal_project_code = "2014_demer",
  start_date = "2015",
  end_date = "2016",
)
#> ℹ Preparing 
#> ✔ Preparing : will fetch 23.70 k detections [1.3s]
#> 
#> ℹ Wrapping up
#> ✔ Wrapping up [139ms]
#> 
#> # A tibble: 23,695 × 20
#>    detection_id date_time           tag_serial_number acoustic_tag_id
#>           <int> <dttm>              <chr>             <chr>          
#>  1     23629467 2015-05-06 04:11:52 1187468           A69-1601-16148 
#>  2     23630262 2015-05-07 15:59:24 1187468           A69-1601-16148 
#>  3     23630263 2015-05-07 16:45:38 1187468           A69-1601-16148 
#>  4     23630265 2015-05-07 16:56:22 1187468           A69-1601-16148 
#>  5     23630267 2015-05-07 17:00:18 1187468           A69-1601-16148 
#>  6     23630274 2015-05-07 17:06:13 1187468           A69-1601-16148 
#>  7     23630278 2015-05-07 17:08:54 1187468           A69-1601-16148 
#>  8     23630285 2015-05-07 17:15:07 1187468           A69-1601-16148 
#>  9     23630294 2015-05-07 17:23:21 1187468           A69-1601-16148 
#> 10     23630300 2015-05-07 17:27:27 1187468           A69-1601-16148 
#> # ℹ 23,685 more rows
#> # ℹ 16 more variables: animal_project_code <chr>, animal_id <int>,
#> #   scientific_name <chr>, acoustic_project_code <chr>, receiver_id <chr>,
#> #   station_name <chr>, deploy_latitude <dbl>, deploy_longitude <dbl>,
#> #   sensor_value <dbl>, sensor_unit <chr>, sensor2_value <dbl>,
#> #   sensor2_unit <chr>, signal_to_noise_ratio <int>, source_file <chr>,
#> #   qc_flag <lgl>, deployment_id <int>

# Get April 2015 acoustic detections from that animal project
get_acoustic_detections(
  animal_project_code = "2014_demer",
  start_date = "2015-04",
  end_date = "2015-05",
)
#> ℹ Preparing 
#> ✔ Preparing : will fetch 442  detections [797ms]
#> 
#> ℹ Wrapping up
#> ✔ Wrapping up [61ms]
#> 
#> # A tibble: 442 × 20
#>    detection_id date_time           tag_serial_number acoustic_tag_id
#>           <int> <dttm>              <chr>             <chr>          
#>  1     23053006 2015-04-24 07:54:12 1171781           A69-1601-26535 
#>  2     23053007 2015-04-24 07:56:29 1171781           A69-1601-26535 
#>  3     23053008 2015-04-25 07:19:22 1171781           A69-1601-26535 
#>  4     23053009 2015-04-25 07:23:10 1171781           A69-1601-26535 
#>  5     23053010 2015-04-25 07:24:35 1171781           A69-1601-26535 
#>  6     23053011 2015-04-25 07:30:41 1171781           A69-1601-26535 
#>  7     23053012 2015-04-25 07:50:48 1171781           A69-1601-26535 
#>  8     23053013 2015-04-25 07:52:16 1171781           A69-1601-26535 
#>  9     23053014 2015-04-25 07:53:50 1171781           A69-1601-26535 
#> 10     23053015 2015-04-25 07:55:33 1171781           A69-1601-26535 
#> # ℹ 432 more rows
#> # ℹ 16 more variables: animal_project_code <chr>, animal_id <int>,
#> #   scientific_name <chr>, acoustic_project_code <chr>, receiver_id <chr>,
#> #   station_name <chr>, deploy_latitude <dbl>, deploy_longitude <dbl>,
#> #   sensor_value <dbl>, sensor_unit <chr>, sensor2_value <dbl>,
#> #   sensor2_unit <chr>, signal_to_noise_ratio <int>, source_file <chr>,
#> #   qc_flag <lgl>, deployment_id <int>
…
# Get acoustic detections for a specific tag at two specific stations
get_acoustic_detections(
  acoustic_tag_id = "A69-1601-16130",
  station_name = c("de-9", "de-10")
)
#> ℹ Preparing 
#> ✔ Preparing : will fetch 50  detections [634ms]
#> 
#> ℹ Wrapping up
#> ✔ Wrapping up [50ms]
#> 
#> # A tibble: 50 × 20
#>    detection_id date_time           tag_serial_number acoustic_tag_id
#>           <int> <dttm>              <chr>             <chr>          
#>  1     20621280 2014-04-26 11:22:25 1187450           A69-1601-16130 
#>  2     20638636 2014-04-26 12:46:40 1187450           A69-1601-16130 
#>  3     20641245 2014-04-26 13:18:00 1187450           A69-1601-16130 
#>  4     20667884 2014-04-26 10:23:51 1187450           A69-1601-16130 
#>  5     20691397 2014-04-28 19:04:35 1187450           A69-1601-16130 
#>  6     20701797 2014-04-26 13:12:00 1187450           A69-1601-16130 
#>  7     20717719 2014-04-26 10:26:00 1187450           A69-1601-16130 
#>  8     20721210 2014-04-28 19:04:00 1187450           A69-1601-16130 
#>  9     20879086 2014-04-26 11:22:00 1187450           A69-1601-16130 
#> 10     20904420 2014-04-26 12:51:00 1187450           A69-1601-16130 
#> # ℹ 40 more rows
#> # ℹ 16 more variables: animal_project_code <chr>, animal_id <int>,
#> #   scientific_name <chr>, acoustic_project_code <chr>, receiver_id <chr>,
#> #   station_name <chr>, deploy_latitude <dbl>, deploy_longitude <dbl>,
#> #   sensor_value <dbl>, sensor_unit <chr>, sensor2_value <dbl>,
#> #   sensor2_unit <chr>, signal_to_noise_ratio <int>, source_file <chr>,
#> #   qc_flag <lgl>, deployment_id <int>

# Get acoustic detections for a specific species, receiver and acoustic project
get_acoustic_detections(
  scientific_name = "Rutilus rutilus",
  receiver_id = "VR2W-124070",
  acoustic_project_code = "demer"
)
#> ℹ Preparing 
#> ✔ Preparing : will fetch 38  detections [851ms]
#> 
#> ℹ Wrapping up
#> ✔ Wrapping up [92ms]
#> 
#> # A tibble: 38 × 20
#>    detection_id date_time           tag_serial_number acoustic_tag_id
#>           <int> <dttm>              <chr>             <chr>          
#>  1     20962095 2014-04-18 16:12:26 1187449           A69-1601-16129 
#>  2     21250456 2014-04-18 16:10:52 1187449           A69-1601-16129 
#>  3     21261941 2014-04-18 16:17:05 1187449           A69-1601-16129 
#>  4     21697884 2014-04-18 16:12:00 1187449           A69-1601-16129 
#>  5     21863649 2014-04-18 16:17:00 1187449           A69-1601-16129 
#>  6     22013363 2014-04-18 16:15:00 1187449           A69-1601-16129 
#>  7     22153161 2014-04-18 16:15:32 1187449           A69-1601-16129 
#>  8     22437907 2014-04-18 16:10:00 1187449           A69-1601-16129 
#>  9     20621280 2014-04-26 11:22:25 1187450           A69-1601-16130 
#> 10     20667884 2014-04-26 10:23:51 1187450           A69-1601-16130 
#> # ℹ 28 more rows
#> # ℹ 16 more variables: animal_project_code <chr>, animal_id <int>,
#> #   scientific_name <chr>, acoustic_project_code <chr>, receiver_id <chr>,
#> #   station_name <chr>, deploy_latitude <dbl>, deploy_longitude <dbl>,
#> #   sensor_value <dbl>, sensor_unit <chr>, sensor2_value <dbl>,
#> #   sensor2_unit <chr>, signal_to_noise_ratio <int>, source_file <chr>,
#> #   qc_flag <lgl>, deployment_id <int>
…
