Get tag data — get_tags • etn
…
    Value

    A tibble with tags data, sorted by tag_serial_number. See also
field definitions.

    Examples

# Set default connection variable
con <- connect_to_etn()

# Get all tags
get_tags(con)
#> # A tibble: 13,066 × 49
#>    tag_serial_number tag_type tag_subtype sensor_type acoustic_tag_id
#>    <chr>             <chr>    <chr>       <chr>       <chr>          
#>  1 1208              acoustic animal      NA          A69-1008-101   
#>  2 1209              acoustic animal      NA          A69-1008-102   
#>  3 1210              acoustic animal      NA          A69-1008-103   
#>  4 1211              acoustic animal      NA          A69-1008-104   
#>  5 1212              acoustic animal      NA          A69-1008-105   
#>  6 1213              acoustic animal      NA          A69-1008-106   
#>  7 1214              acoustic animal      NA          A69-1008-107   
#>  8 1215              acoustic animal      NA          A69-1008-108   
#>  9 1216              acoustic animal      NA          A69-1008-109   
#> 10 1217              acoustic animal      NA          A69-1008-110   
#> # … with 13,056 more rows, and 44 more variables:
#> #   acoustic_tag_id_alternative <chr>, manufacturer <chr>, model <chr>,
#> #   frequency <chr>, status <chr>, activation_date <dttm>,
#> #   battery_estimated_life <chr>, battery_estimated_end_date <dttm>,
#> #   sensor_slope <dbl>, sensor_intercept <dbl>, sensor_range <chr>,
#> #   sensor_range_min <dbl>, sensor_range_max <dbl>, sensor_resolution <dbl>,
#> #   sensor_unit <chr>, sensor_accuracy <dbl>, sensor_transmit_ratio <int>, …

# Get archival tags, including acoustic-archival
get_tags(con, tag_type = c("archival", "acoustic-archival"))
#> # A tibble: 2,408 × 49
#>    tag_serial_number tag_type          tag_subtype sensor_type acoustic_tag_id
#>    <chr>             <chr>             <chr>       <chr>       <chr>          
#>  1 1099674           acoustic-archival sentinel    P           A69-9002-16200 
#>  2 1108971           acoustic-archival sentinel    P           A69-1105-1     
#>  3 1108972           acoustic-archival sentinel    P           A69-1105-2     
#>  4 1108973           acoustic-archival sentinel    P           A69-1105-3     
#>  5 1108974           acoustic-archival sentinel    P           A69-1105-4     
#>  6 1145533           acoustic-archival sentinel    P           A69-9002-6814  
#>  7 1145534           acoustic-archival sentinel    P           A69-9002-6815  
#>  8 1148544           acoustic-archival sentinel    T           A69-9002-13730 
#>  9 1148544           acoustic-archival sentinel    P           A69-9002-13731 
#> 10 1161815           acoustic-archival sentinel    P           A69-1105-210   
#> # … with 2,398 more rows, and 44 more variables:
#> #   acoustic_tag_id_alternative <chr>, manufacturer <chr>, model <chr>,
#> #   frequency <chr>, status <chr>, activation_date <dttm>,
#> #   battery_estimated_life <chr>, battery_estimated_end_date <dttm>,
#> #   sensor_slope <dbl>, sensor_intercept <dbl>, sensor_range <chr>,
#> #   sensor_range_min <dbl>, sensor_range_max <dbl>, sensor_resolution <dbl>,
#> #   sensor_unit <chr>, sensor_accuracy <dbl>, sensor_transmit_ratio <int>, …

# Get tags of specific subtype
get_tags(con, tag_subtype = c("built-in", "range"))
#> # A tibble: 125 × 49
#>    tag_serial_number tag_type tag_subtype sensor_type acoustic_tag_id
#>    <chr>             <chr>    <chr>       <chr>       <chr>          
#>  1 461076            acoustic built-in    NA          H170-1802-62076
#>  2 461076            acoustic built-in    NA          A180-1702-62076
#>  3 461135            acoustic built-in    NA          H170-1802-62135
#>  4 461135            acoustic built-in    NA          A180-1702-62135
#>  5 461140            acoustic built-in    NA          H170-1802-62140
#>  6 461140            acoustic built-in    NA          A180-1702-62140
#>  7 461206            acoustic built-in    NA          H170-1802-62206
#>  8 461206            acoustic built-in    NA          A180-1702-62206
#>  9 461207            acoustic built-in    NA          H170-1802-62207
#> 10 461207            acoustic built-in    NA          A180-1702-62207
#> # … with 115 more rows, and 44 more variables:
#> #   acoustic_tag_id_alternative <chr>, manufacturer <chr>, model <chr>,
#> #   frequency <chr>, status <chr>, activation_date <dttm>,
#> #   battery_estimated_life <chr>, battery_estimated_end_date <dttm>,
#> #   sensor_slope <dbl>, sensor_intercept <dbl>, sensor_range <chr>,
#> #   sensor_range_min <dbl>, sensor_range_max <dbl>, sensor_resolution <dbl>,
#> #   sensor_unit <chr>, sensor_accuracy <dbl>, sensor_transmit_ratio <int>, …
…
