Get acoustic deployment data — get_acoustic_deployments • etn
…
    Value

    A tibble with acoustic deployment data, sorted by
acoustic_project_code, station_name and deploy_date_time. See also
field definitions.

    Examples

# Set default connection variable
con <- connect_to_etn()

# Get all acoustic deployments
get_acoustic_deployments(con)
#> # A tibble: 7,042 × 38
#>    deployment_id receiver_id acoustic_project_code station_name station_descrip…
#>            <int> <chr>       <chr>                 <chr>        <chr>           
#>  1          6660 VR20-2029   2004_Gudena           GUD1         GUD1            
#>  2          6670 VR2-3536    2004_Gudena           GUD1         GUD1            
#>  3          6661 VR2-1908    2004_Gudena           GUD2         GUD2            
#>  4          6671 VR2-1908    2004_Gudena           GUD2         GUD2            
#>  5          6680 VR2-2566    2004_Gudena           KATNORD      KATNORD         
#>  6          6679 VR2-2719    2004_Gudena           KATSYD       KATSYD          
#>  7          6662 VR2-3538    2004_Gudena           RAN1         RAN1            
#>  8          6672 VR2-3538    2004_Gudena           RAN1         RAN1            
#>  9          6663 VR2-1909    2004_Gudena           RAN2         RAN2            
#> 10          6673 VR2-1909    2004_Gudena           RAN2         RAN2            
#> # … with 7,032 more rows, and 33 more variables: station_manager <chr>,
#> #   deploy_date_time <dttm>, deploy_latitude <dbl>, deploy_longitude <dbl>,
#> #   intended_latitude <dbl>, intended_longitude <dbl>, mooring_type <chr>,
#> #   bottom_depth <chr>, riser_length <chr>, deploy_depth <chr>,
#> #   battery_installation_date <dttm>, battery_estimated_end_date <dttm>,
#> #   activation_date_time <dttm>, recover_date_time <dttm>,
#> #   recover_latitude <dbl>, recover_longitude <dbl>, …
…
# Get open acoustic deployments for a specific receiver
get_acoustic_deployments(con, receiver_id = "VR2W-124070", open_only = TRUE)
#> # A tibble: 0 × 38
#> # … with 38 variables: deployment_id <int>, receiver_id <chr>,
#> #   acoustic_project_code <chr>, station_name <chr>, station_description <chr>,
#> #   station_manager <chr>, deploy_date_time <dttm>, deploy_latitude <dbl>,
#> #   deploy_longitude <dbl>, intended_latitude <dbl>, intended_longitude <dbl>,
#> #   mooring_type <chr>, bottom_depth <chr>, riser_length <chr>,
#> #   deploy_depth <chr>, battery_installation_date <dttm>,
#> #   battery_estimated_end_date <dttm>, activation_date_time <dttm>, …

# Get acoustic deployments for a specific acoustic project
get_acoustic_deployments(con, acoustic_project_code = "demer")
#> # A tibble: 46 × 38
#>    deployment_id receiver_id acoustic_project_code station_name station_descrip…
#>            <int> <chr>       <chr>                 <chr>        <chr>           
#>  1          1424 VR2W-122350 demer                 de-1         fietsersbrug aa…
#>  2          1658 VR2W-122345 demer                 de-2         Rommelaar       
#>  3          1478 VR2W-122325 demer                 de-2         rommelaar       
#>  4          1661 VR2W-122344 demer                 de-3         Messelbroek     
#>  5          1381 VR2W-122339 demer                 de-3         Messelbroek     
#>  6          2869 VR2W-122339 demer                 de-3         Messelbroek     
#>  7          1662 VR2W-122323 demer                 de-4         Testelt         
#>  8          1425 VR2W-122337 demer                 de-5         SO_ZICHEM_DEMER 
#>  9          1663 VR2W-122341 demer                 de-6         SA_RIF_LODEMER  
#> 10          1378 VR2W-122320 demer                 de-7         de-7            
#> # … with 36 more rows, and 33 more variables: station_manager <chr>,
#> #   deploy_date_time <dttm>, deploy_latitude <dbl>, deploy_longitude <dbl>,
#> #   intended_latitude <dbl>, intended_longitude <dbl>, mooring_type <chr>,
#> #   bottom_depth <chr>, riser_length <chr>, deploy_depth <chr>,
#> #   battery_installation_date <dttm>, battery_estimated_end_date <dttm>,
#> #   activation_date_time <dttm>, recover_date_time <dttm>,
#> #   recover_latitude <dbl>, recover_longitude <dbl>, …
…
