Explore acoustic telemetry data • etn
…
##  [1] "de-7"   "s-2a"   "de-3"   "de-5"   "de-8"   "de-10"  "de-11"  "de-14a"
##  [9] "de-13"  "de-14"  "de-19"  "de-9"   "de-18"  "de-20"  "de-2"   "de-12" 
## [17] "de-1"   "de-4"   "de-6"   "de-21"  "de-16"  "de-23"  "de-22"

Notice how a detection station can be linked to multiple
deployments:

detections_silurus |>
  distinct(station_name, deployment_id) |>
  group_by(station_name) |>
  add_tally() |>
  arrange(desc(n))

## # A tibble: 33 × 3
## # Groups:   station_name [23]
##    station_name deployment_id     n
##    <chr>                <int> <int>
##  1 de-12                 2938     3
##  2 de-12                 1656     3
##  3 de-12                 1470     3
##  4 de-7                  1378     2
##  5 de-3                  1381     2
##  6 de-8                  1427     2
##  7 de-14a                1431     2
##  8 de-14                 1433     2
##  9 de-9                  1437     2
## 10 de-3                  2869     2
## # ℹ 23 more rows

Sometimes it’s interesting to know the number of detections per
station:

n_detect_station <-
  detections_silurus |>
  group_by(station_name) |>
  count()
n_detect_station

## # A tibble: 23 × 2
## # Groups:   station_name [23]
##    station_name     n
##    <chr>        <int>
##  1 de-1           368
##  2 de-10         1681
##  3 de-11          163
##  4 de-12         4203
##  5 de-13          166
##  6 de-14        12266
##  7 de-14a        6604
##  8 de-16          591
##  9 de-18          148
## 10 de-19          650
## # ℹ 13 more rows

It’s also interesting to know the number of unique individuals per
station:

n_silurus_station <-
  detections_silurus |>
  distinct(station_name, animal_id) |>
  group_by(station_name) |>
  count()
n_silurus_station

## # A tibble: 23 × 2
## # Groups:   station_name [23]
##    station_name     n
##    <chr>        <int>
##  1 de-1             3
##  2 de-10            6
##  3 de-11            4
##  4 de-12            5
##  5 de-13            4
##  6 de-14            6
##  7 de-14a           6
##  8 de-16            4
##  9 de-18            3
## 10 de-19            5
## # ℹ 13 more rows
…
Acoustic deployments

You can retrieve deployment information related to the acoustic
networks in acoustic_project_codes by using
get_acoustic_deployments() function:

deployments <- get_acoustic_deployments(
  acoustic_project_code = acoustic_project_codes
)
deployments

## # A tibble: 533 × 38
##    deployment_id receiver_id acoustic_project_code station_name
##            <int> <chr>       <chr>                 <chr>       
##  1          1424 VR2W-122350 demer                 de-1        
##  2          1658 VR2W-122345 demer                 de-2        
##  3          1478 VR2W-122325 demer                 de-2        
##  4          1661 VR2W-122344 demer                 de-3        
##  5          1381 VR2W-122339 demer                 de-3        
##  6          2869 VR2W-122339 demer                 de-3        
##  7          1662 VR2W-122323 demer                 de-4        
##  8          1425 VR2W-122337 demer                 de-5        
##  9          1663 VR2W-122341 demer                 de-6        
## 10          1378 VR2W-122320 demer                 de-7        
##    station_description   station_manager deploy_date_time    deploy_latitude
##    <chr>                 <chr>           <dttm>                        <dbl>
##  1 fietsersbrug aarschot 1               2014-05-13 00:00:00            51.0
##  2 Rommelaar             1               2014-05-14 00:00:00            51.0
##  3 rommelaar             1               2014-08-07 00:00:00            51.0
##  4 Messelbroek           1               2014-05-13 00:00:00            51.0
##  5 Messelbroek           <NA>            2014-08-07 00:00:00            51.0
##  6 Messelbroek           <NA>            2014-09-21 00:00:00            51.0
##  7 Testelt               1               2014-05-13 00:00:00            51.0
##  8 SO_ZICHEM_DEMER       1               2014-05-05 00:00:00            51.0
##  9 SA_RIF_LODEMER        1               2014-05-05 00:00:00            51.0
## 10 de-7                  <NA>            2014-05-05 00:00:00            51.0
## # ℹ 523 more rows
## # ℹ 30 more variables: deploy_longitude <dbl>, intended_latitude <dbl>,
## #   intended_longitude <dbl>, mooring_type <chr>, bottom_depth <chr>,
## #   riser_length <chr>, deploy_depth <chr>, battery_installation_date <dttm>,
## #   battery_estimated_end_date <dttm>, activation_date_time <dttm>,
## #   recover_date_time <dttm>, recover_latitude <dbl>, recover_longitude <dbl>,
## #   download_date_time <dttm>, download_file_name <chr>, …
…
##  [1] 1378 1379 1381 1425 1427 1428 1429 1431 1432 1433 1436 1437 1439 1440 1478
## [16] 2869 2938 1424 1662 1663 1384 1434 1441 1656 1659 1660 2933 1470 1506 1573
## [31] 1588 1593 1592

More information about them can be retrieved via
get_acoustic_deployments() function with argument
deployment_id:

deployments_silurus <- get_acoustic_deployments(
  deployment_id = deploys_silurus
)
deployments_silurus

## # A tibble: 33 × 38
##    deployment_id receiver_id acoustic_project_code station_name
##            <int> <chr>       <chr>                 <chr>       
##  1          1424 VR2W-122350 demer                 de-1        
##  2          1478 VR2W-122325 demer                 de-2        
##  3          1381 VR2W-122339 demer                 de-3        
##  4          2869 VR2W-122339 demer                 de-3        
##  5          1662 VR2W-122323 demer                 de-4        
##  6          1425 VR2W-122337 demer                 de-5        
##  7          1663 VR2W-122341 demer                 de-6        
##  8          1378 VR2W-122320 demer                 de-7        
##  9          1593 VR2W-122320 demer                 de-7        
## 10          1427 VR2W-122330 demer                 de-8        
##    station_description   station_manager deploy_date_time    deploy_latitude
##    <chr>                 <chr>           <dttm>                        <dbl>
##  1 fietsersbrug aarschot 1               2014-05-13 00:00:00            51.0
##  2 rommelaar             1               2014-08-07 00:00:00            51.0
##  3 Messelbroek           <NA>            2014-08-07 00:00:00            51.0
##  4 Messelbroek           <NA>            2014-09-21 00:00:00            51.0
##  5 Testelt               1               2014-05-13 00:00:00            51.0
##  6 SO_ZICHEM_DEMER       1               2014-05-05 00:00:00            51.0
##  7 SA_RIF_LODEMER        1               2014-05-05 00:00:00            51.0
##  8 de-7                  <NA>            2014-05-05 00:00:00            51.0
##  9 de-7                  <NA>            2014-12-19 02:00:00            51.0
## 10 AAN_GB2_RODEMER       1               2014-05-05 00:00:00            51.0
## # ℹ 23 more rows
## # ℹ 30 more variables: deploy_longitude <dbl>, intended_latitude <dbl>,
## #   intended_longitude <dbl>, mooring_type <chr>, bottom_depth <chr>,
## #   riser_length <chr>, deploy_depth <chr>, battery_installation_date <dttm>,
## #   battery_estimated_end_date <dttm>, activation_date_time <dttm>,
## #   recover_date_time <dttm>, recover_latitude <dbl>, recover_longitude <dbl>,
## #   download_date_time <dttm>, download_file_name <chr>, …

Deployment duration:

deployments_silurus_duration <-
  deployments_silurus |>
  mutate(duration = as.duration(recover_date_time - deploy_date_time)) |>
  select(deployment_id, station_name, duration) |>
  arrange(deployment_id)
deployments_silurus_duration

## # A tibble: 33 × 3
##    deployment_id station_name duration                
##            <int> <chr>        <Duration>              
##  1          1378 de-7         19706400s (~32.58 weeks)
##  2          1379 s-2a         19440000s (~32.14 weeks)
##  3          1381 de-3         3888000s (~6.43 weeks)  
##  4          1384 de-21        5788800s (~9.57 weeks)  
##  5          1424 de-1         23760000s (~39.29 weeks)
##  6          1425 de-5         24451200s (~40.43 weeks)
##  7          1427 de-8         19706400s (~32.58 weeks)
##  8          1428 de-10        26611200s (~44 weeks)   
##  9          1429 de-11        26611200s (~44 weeks)   
## 10          1431 de-14a       16070400s (~26.57 weeks)
## # ℹ 23 more rows

Number of days a deployment detected the passage of one or more
individuals:

n_active_days_deployments_silurus <-
  detections_silurus |>
  mutate(date = date(date_time)) |>
  distinct(deployment_id, station_name, date) |>
  group_by(deployment_id, station_name) |>
  summarize(n_days = n(), .groups = "drop") |>
  ungroup()
n_active_days_deployments_silurus

## # A tibble: 33 × 3
##    deployment_id station_name n_days
##            <int> <chr>         <int>
##  1          1378 de-7            125
##  2          1379 s-2a              7
##  3          1381 de-3              3
##  4          1384 de-21            25
##  5          1424 de-1              7
##  6          1425 de-5             48
##  7          1427 de-8            142
##  8          1428 de-10            35
##  9          1429 de-11            15
## 10          1431 de-14a           59
## # ℹ 23 more rows
…
rel_det_duration_silurus <-
  n_active_days_deployments_silurus |>
  left_join(
    deployments_silurus_duration,
    by = c("deployment_id", "station_name")
  ) |>
  mutate(
    relative_detection_duration = n_days * (24 * 60 * 60) / as.numeric(duration)
  ) |>
  select(deployment_id, station_name, relative_detection_duration)
rel_det_duration_silurus

## # A tibble: 33 × 3
##    deployment_id station_name relative_detection_duration
##            <int> <chr>                              <dbl>
##  1          1378 de-7                              0.548 
##  2          1379 s-2a                              0.0311
##  3          1381 de-3                              0.0667
##  4          1384 de-21                             0.373 
##  5          1424 de-1                              0.0255
##  6          1425 de-5                              0.170 
##  7          1427 de-8                              0.623 
##  8          1428 de-10                             0.114 
##  9          1429 de-11                             0.0487
## 10          1431 de-14a                            0.317 
## # ℹ 23 more rows
…
geo_info_stations <-
  detections_silurus |>
  distinct(
    station_name,
    deploy_latitude,
    deploy_longitude,
    acoustic_project_code
  ) |>
  arrange(station_name)
geo_info_stations

## # A tibble: 23 × 4
##    station_name deploy_latitude deploy_longitude acoustic_project_code
##    <chr>                  <dbl>            <dbl> <chr>                
##  1 de-1                    51.0             4.84 demer                
##  2 de-10                   51.0             5.05 demer                
##  3 de-11                   51.0             5.05 demer                
##  4 de-12                   51.0             5.06 demer                
##  5 de-13                   51.0             5.06 demer                
##  6 de-14                   51.0             5.06 demer                
##  7 de-14a                  51.0             5.06 demer                
##  8 de-16                   51.0             5.06 demer                
##  9 de-18                   51.0             5.07 demer                
## 10 de-19                   51.0             5.08 demer                
## # ℹ 13 more rows
…
geo_info_deploys <-
  detections_silurus |>
  distinct(
    deployment_id,
    deploy_latitude,
    deploy_longitude,
    station_name,
    acoustic_project_code
  ) |>
  arrange(station_name)
geo_info_deploys

## # A tibble: 33 × 5
##    deployment_id deploy_latitude deploy_longitude station_name
##            <int>           <dbl>            <dbl> <chr>       
##  1          1424            51.0             4.84 de-1        
##  2          1428            51.0             5.05 de-10       
##  3          1429            51.0             5.05 de-11       
##  4          2938            51.0             5.06 de-12       
##  5          1656            51.0             5.06 de-12       
##  6          1470            51.0             5.06 de-12       
##  7          1432            51.0             5.06 de-13       
##  8          1433            51.0             5.06 de-14       
##  9          1592            51.0             5.06 de-14       
## 10          1431            51.0             5.06 de-14a      
##    acoustic_project_code
##    <chr>                
##  1 demer                
##  2 demer                
##  3 demer                
##  4 demer                
##  5 demer                
##  6 demer                
##  7 demer                
##  8 demer                
##  9 demer                
## 10 demer                
## # ℹ 23 more rows
…
